Categories:Multimedia
License:Apache-2.0
Web Site:https://simplemobiletools.github.io/
Source Code:https://github.com/SimpleMobileTools/Simple-Gallery
Issue Tracker:https://github.com/SimpleMobileTools/Simple-Gallery/issues
Changelog:https://github.com/SimpleMobileTools/Simple-Gallery/blob/HEAD/CHANGELOG.md

Auto Name:Gallery
Summary:A gallery for viewing photos and videos
Description:
A simple tool usable for viewing photos and videos. Items can be sorted by date,
size, name both ascending or descending, photos can be zoomed in. Media files
are shown in multiple columns, depending on the size of the display. They can be
renamed, shared or deleted.

The Gallery is also offered for third party usage for previewing images /
videos, adding attachments at email clients etc. It's perfect for everyday
usage.

Contains no ads or unnecessary permissions. It is fully opensource, provides a
Dark theme too.
.

Repo Type:git
Repo:https://github.com/SimpleMobileTools/Simple-Gallery

Build:1.9,10
    commit=33909cbba4ca354351713077d72b42ae611209af
    subdir=app
    gradle=yes

Build:1.11,11
    commit=1.11
    subdir=app
    gradle=yes

Build:1.12,12
    commit=1.12
    subdir=app
    gradle=yes

Build:1.13,13
    commit=1.13
    subdir=app
    gradle=yes

Build:1.14,14
    commit=1.14
    subdir=app
    gradle=yes

Build:1.15,15
    commit=1.15
    subdir=app
    gradle=yes

Build:1.16,16
    commit=1.16
    subdir=app
    gradle=yes

Build:1.17,17
    commit=1.17
    subdir=app
    gradle=yes

Build:1.18,18
    commit=1.18
    subdir=app
    gradle=yes

Build:1.19,19
    commit=1.19
    subdir=app
    gradle=yes

Build:1.20,20
    commit=1.20
    subdir=app
    gradle=yes

Build:1.22,22
    commit=1.22
    subdir=app
    gradle=yes

Build:1.23,23
    commit=1.23
    subdir=app
    gradle=yes

Build:1.24,24
    commit=1.24
    subdir=app
    gradle=yes

Build:1.25,25
    commit=1.25
    subdir=app
    gradle=yes

Build:1.26,26
    commit=1.26
    subdir=app
    gradle=yes

Build:1.27,27
    commit=1.27
    subdir=app
    gradle=yes

Build:1.28,28
    commit=1.28
    subdir=app
    gradle=yes

Build:1.29,29
    commit=1.29
    subdir=app
    gradle=yes

Build:1.30,30
    commit=1.30
    subdir=app
    gradle=yes

Build:1.31,31
    commit=1.31
    subdir=app
    gradle=yes

Build:1.33,33
    commit=1.33
    subdir=app
    gradle=yes

Build:1.34,34
    commit=1.34
    subdir=app
    gradle=yes

Build:1.35,35
    commit=1.35
    subdir=app
    gradle=yes

Build:1.37,37
    commit=1.37
    subdir=app
    gradle=yes

Build:1.40,40
    commit=1.40
    subdir=app
    gradle=yes

Build:1.41,41
    commit=1.41
    subdir=app
    gradle=yes

Build:1.42,42
    commit=1.42
    subdir=app
    gradle=yes

Build:1.43,43
    commit=1.43
    subdir=app
    gradle=yes

Build:1.44,44
    commit=1.44
    subdir=app
    gradle=yes

Build:1.45,45
    commit=1.45
    subdir=app
    gradle=yes

Build:1.46,46
    commit=1.46
    subdir=app
    gradle=yes

Build:1.47,47
    commit=1.47
    subdir=app
    gradle=yes

Build:1.48,48
    commit=1.48
    subdir=app
    gradle=yes

Build:1.49,49
    commit=1.49
    subdir=app
    gradle=yes

Build:1.51,51
    commit=1.51
    subdir=app
    gradle=yes

Build:2.1,53
    commit=2.1
    subdir=app
    gradle=yes

Build:2.1.1,54
    commit=2.1.1
    subdir=app
    gradle=yes

Build:2.1.2,55
    commit=2.1.2
    subdir=app
    gradle=yes

Build:2.1.3,56
    commit=2.1.3
    subdir=app
    gradle=yes

Build:2.2.1,58
    commit=2.2.1
    subdir=app
    gradle=yes

Build:2.2.2,59
    commit=2.2.2
    subdir=app
    gradle=yes

Build:2.2.3,60
    commit=2.2.3
    subdir=app
    gradle=yes

Build:2.3.0,61
    commit=2.3.0
    subdir=app
    gradle=yes

Build:2.3.1,62
    commit=2.3.1
    subdir=app
    gradle=yes

Build:2.3.2,63
    commit=2.3.2
    subdir=app
    gradle=yes

Build:2.3.3,64
    commit=2.3.3
    subdir=app
    gradle=yes

Build:2.3.4,65
    commit=2.3.4
    subdir=app
    gradle=yes

Build:2.3.5,66
    commit=2.3.5
    subdir=app
    gradle=yes

Build:2.3.6,67
    commit=2.3.6
    subdir=app
    gradle=yes

Build:2.3.7,68
    commit=2.3.7
    subdir=app
    gradle=yes

Build:2.3.8,69
    commit=2.3.8
    subdir=app
    gradle=yes

Build:2.3.9,70
    commit=2.3.9
    subdir=app
    gradle=yes

Build:2.4.0,71
    commit=2.4.0
    subdir=app
    gradle=yes

Build:2.5.0,72
    commit=2.5.0
    subdir=app
    gradle=yes

Build:2.5.3,76
    commit=2.5.3
    subdir=app
    gradle=yes

Build:2.6.3,80
    commit=2.6.3
    subdir=app
    gradle=yes

Build:2.6.4,81
    commit=2.6.4
    subdir=app
    gradle=yes

Build:2.6.5,82
    commit=2.6.5
    subdir=app
    gradle=yes

Build:2.6.6,83
    commit=2.6.6
    subdir=app
    gradle=yes

Build:2.7.3,87
    commit=2.7.3
    subdir=app
    gradle=yes

Build:2.7.4,88
    commit=2.7.4
    subdir=app
    gradle=yes

Build:2.8.0,89
    commit=2.8.0
    subdir=app
    gradle=yes

Build:2.8.3,92
    commit=2.8.3
    subdir=app
    gradle=yes

Build:2.8.4,93
    commit=2.8.4
    subdir=app
    gradle=yes

Build:2.8.6,95
    commit=2.8.6
    subdir=app
    gradle=yes

Build:2.9.0,97
    commit=2.9.0
    subdir=app
    gradle=yes

Build:2.9.1,98
    commit=2.9.1
    subdir=app
    gradle=yes

Build:2.10.4,103
    commit=2.10.4
    subdir=app
    gradle=yes

Build:2.10.6,105
    commit=2.10.6
    subdir=app
    gradle=yes

Build:2.10.7,106
    commit=2.10.7
    subdir=app
    gradle=yes

Build:2.10.8,107
    commit=2.10.8
    subdir=app
    gradle=yes

Build:2.10.10,109
    commit=2.10.10
    subdir=app
    gradle=yes

Build:2.11.1,111
    commit=2.11.1
    subdir=app
    gradle=yes

Build:2.11.4,114
    commit=2.11.4
    subdir=app
    gradle=yes

Build:2.11.5,115
    commit=2.11.5
    subdir=app
    gradle=yes

Build:2.12.0,116
    commit=2.12.0
    subdir=app
    gradle=yes

Build:2.12.1,117
    commit=2.12.1
    subdir=app
    gradle=yes

Build:2.12.2,118
    commit=2.12.2
    subdir=app
    gradle=yes

Build:2.12.5,121
    commit=2.12.5
    subdir=app
    gradle=yes

Build:2.13.0,123
    commit=2.13.0
    subdir=app
    gradle=yes

Build:2.13.1,124
    commit=2.13.1
    subdir=app
    gradle=yes

Build:2.13.2,125
    commit=2.13.2
    subdir=app
    gradle=yes

Build:2.13.3,126
    commit=2.13.3
    subdir=app
    gradle=yes

Build:2.13.4,127
    commit=2.13.4
    subdir=app
    gradle=yes

Build:2.14.1,129
    commit=2.14.1
    subdir=app
    gradle=yes

Build:2.14.2,130
    commit=2.14.2
    subdir=app
    gradle=yes

Build:2.14.4,132
    commit=2.14.4
    subdir=app
    gradle=yes

Build:2.15.1,134
    commit=2.15.1
    subdir=app
    gradle=yes

Build:2.15.2,135
    commit=2.15.2
    subdir=app
    gradle=yes

Build:2.16.0,136
    commit=2.16.0
    subdir=app
    gradle=yes

Build:2.17.2,140
    commit=2.17.2
    subdir=app
    gradle=yes

Build:2.17.3,141
    commit=2.17.3
    subdir=app
    gradle=yes

Build:2.18.0,143
    disable=Could not find com.android.tools.build:gradle:3.0.0
    commit=2.18.0
    subdir=app
    gradle=yes

Build:2.19.0,145
    commit=2.19.0
    subdir=app
    gradle=yes

Build:3.0.1,147
    commit=3.0.1
    subdir=app
    gradle=yes

Auto Update Mode:Version %v
Update Check Mode:Tags
Current Version:3.0.1
Current Version Code:147
